{
  "calendarSources": [
    {
      "type": "local",
      "color": "#e16733",
      "directory": "IUT/calendar"
    }
  ],
  "defaultCalendar": 0,
  "firstDay": 1,
  "initialView": {
    "desktop": "dayGridMonth",
    "mobile": "timeGrid3Days"
  },
  "timeFormat24h": true
}